generation_number,offsprings_per_generation,male_offsprings_per_generation,female_offsprings_per_generation,duration
1,36,20,16,100499765524
2,44,18,26,73375166778
3,38,13,25,103199293177
4,28,11,17,103814488802
5,20,12,8,86587190346
6,42,19,23,29851471277
7,65,28,37,29871227660
8,94,41,53,29972527225
9,151,63,88,53142414582
10,202,83,119,43889740608
11,290,118,172,47093288301
12,346,160,186,76795077819
13,414,175,239,62883703443
14,502,226,276,112380541964
15,575,263,312,82672423961
16,607,297,310,107084645452
17,619,296,323,117507252967
18,620,289,331,99548078639
19,579,284,295,114191841261
20,615,297,318,116600741797
21,533,246,287,121082134111
22,515,284,231,122099597838
23,535,258,277,119880719202
24,445,222,223,129003999119
25,421,220,201,122605898296
26,320,161,159,122451533331
27,275,165,110,141952126232
28,236,138,98,122467065986
29,177,96,81,128400357556
30,158,80,78,133956996939
31,103,65,38,136963784901
32,81,59,22,141094819895
33,60,43,17,135743382565
34,37,32,5,132262140253
35,43,40,3,131816869485
36,27,24,3,135532431114
37,23,22,1,126807645577
38,20,19,1,141673405682
39,12,12,0,134952552157
40,10,10,0,141131151838
41,7,7,0,134039805266
42,2,2,0,134989433184
43,2,2,0,142430420225
44,2,2,0,151771827192
45,0,0,0,0
46,0,0,0,0
47,1,1,0,171714637936
