serial_no,match_no,1st_Thread,2nd_Thread,dna_seq
1,6,5,252,344,1031,1206,1208,1440,ttgatgtgcg
2,14,11,142,1053,1566,2592,3920,4096,4501,4926,5628,5967,6219,6703,6718,6840,ttgccatatt
3,1,12,144,tcggtacgaa
4,13,32,126,136,225,235,267,1198,1558,3158,4038,6101,7475,8711,9786,cgcggaggtg
5,128,43,93,94,98,104,119,128,135,146,150,163,191,193,204,211,226,262,264,266,293,296,305,323,349,351,360,381,439,490,525,560,564,581,591,595,688,718,736,762,814,841,852,853,873,884,983,988,1007,1009,1097,1100,1135,1181,1228,1251,1312,1321,1359,1381,1448,1540,1690,1898,1908,1927,1935,2023,2057,2216,2236,2320,2336,2343,2468,2647,2699,2971,3127,3231,3250,3290,3292,3369,3486,3590,3796,3888,4031,4107,4146,4192,4317,4323,4389,4460,4589,4715,4775,5055,5078,5106,5177,5199,5360,5365,5389,5408,5531,5743,5757,5788,5898,6356,6671,6854,7022,7160,7359,7367,7622,8359,8432,8498,8614,8694,8893,9324,9463,9952,ctttagtaca
6,1,56,109,cgcatggagg
7,3,80,1076,2152,4420,catggatacc
8,42,85,184,247,255,541,808,824,863,864,980,1187,1262,1344,1726,1820,1962,2242,2245,2259,2656,2837,2909,3168,3255,3377,3530,4526,5067,5520,5535,6612,7096,7269,7648,7676,7933,8376,8557,8683,8767,9132,9188,9605,tcggtagaga
9,1,87,103,gggaggatcg
10,1,88,149,gtgtatgctt
11,2,91,627,6758,actggataca
12,28,96,117,240,299,425,475,494,516,523,529,576,694,772,774,1411,1911,2271,2512,3069,3153,3919,4165,4310,5452,6304,6377,8647,9735,9761,cgcgtagaga
13,49,99,118,166,189,221,404,437,487,511,568,624,914,962,1057,1086,1131,1223,1236,1244,1337,1572,1739,1784,1897,1912,2166,2182,2345,2367,2417,2607,2774,2961,3140,3267,3505,3842,3950,4099,4762,4786,5658,5801,6736,6867,6954,7232,7834,8466,8949,tcggtagaaa
14,2,100,132,704,ggcagcgagg
15,21,101,175,265,440,476,559,1456,1604,1655,1976,2228,2235,2893,2977,3351,3410,3431,3828,3966,4799,6239,6397,cgcgtagagg
16,6,102,161,210,464,563,720,1241,atcggaggtg
17,1,106,9558,cgtctcgaga
18,21,108,198,201,220,241,268,286,298,315,460,867,938,1039,1327,1642,2133,2984,6978,7779,8010,8060,8634,tctggataac
19,1,111,280,actgcataca
20,1,112,170,cgtggagcag
21,42,113,127,154,196,212,238,276,311,312,389,398,435,964,997,1314,1747,1768,1772,1863,2044,2106,2274,2898,3136,3514,3567,3573,3579,3696,3847,3906,3943,4076,5251,5732,6234,6337,6540,7141,7993,7994,8362,8384,cgtgtagaga
22,1,115,309,attgtaccgc
23,1,124,129,cgaactacta
24,4,125,317,1348,1742,7026,cccaagtaca
25,1,133,1729,agcggaggtg
26,46,137,287,336,376,450,538,759,793,850,874,1170,1308,1379,1822,1834,1877,2045,2119,2138,2139,2202,2439,2559,2724,3261,3299,3423,3513,3588,3800,3896,4080,4085,4347,4482,4873,5591,5871,6294,6737,7563,7638,8507,9111,9329,9548,9828,ccggtagaga
27,2,138,1318,2021,agcggtacga
28,5,139,5759,6877,7912,8365,8841,cgcgtagaag
29,1,143,2661,ttcgcttatt
30,2,145,428,662,cttaaaggcg
31,1,147,1577,atcgtagagc
32,2,148,690,1322,ggcaacttag
33,2,152,359,763,acgaaagaaa
34,7,156,285,300,536,618,1078,3269,5330,catgtagacc
35,42,157,180,244,288,326,327,353,370,411,458,553,589,631,692,932,1096,1122,1149,1202,1531,1656,1705,1832,2037,2531,3226,3337,3470,3524,3655,3681,3747,3809,4682,4906,5000,5334,5427,6172,6512,6987,7504,9585,cgtgtagagg
36,5,159,653,664,1598,1652,2210,cttggataac
37,1,162,6801,gtgagctatt
38,1,167,207,agccttacag
39,9,168,254,418,453,706,1376,1427,2447,2868,3643,ccggtaccga
40,3,171,258,859,1994,cttgtagaac
41,52,172,223,236,397,429,473,554,580,655,696,709,855,870,976,1163,1185,1333,1413,1536,2219,2436,2528,2562,3125,3230,3286,3520,4007,4163,4273,4385,4431,4531,4606,4750,4856,4940,4969,5539,5574,5822,6073,6238,6320,6426,6458,6567,7041,7573,7755,7848,9107,9703,gtgccctatt
42,2,174,183,683,tctgcataac
43,8,176,445,708,795,1080,1350,2276,2919,6066,ctttagtcca
44,1,177,9859,tcggaagaaa
45,8,178,261,294,338,339,468,555,1103,4817,cgtcgcgaga
46,40,179,279,333,385,433,666,731,816,1210,1231,1279,1421,1483,1556,1589,1689,1833,1933,2031,2101,2205,2225,2411,2836,2989,3502,3792,3860,4170,4215,4379,4757,5032,5774,7423,7522,8269,8414,9291,9311,9955,ccctagtaca
47,8,181,308,465,643,1088,1299,3900,4408,8120,ctttagtgcg
48,5,182,253,734,1081,3465,4717,tcgggaggtg
49,7,185,190,302,663,727,2623,2841,3068,ctcggaggtg
50,2,186,1811,3741,agtggcgcac
51,5,187,274,1014,1115,1204,1533,cgcgtgtgcg
52,3,188,375,479,1983,atcgtagaga
53,4,192,281,674,3970,4440,cccaaataca
54,2,194,883,6467,ggcatcgagg
55,1,195,6849,ccgaaagaaa
56,16,202,272,380,386,426,616,644,713,1306,1504,1519,1984,2509,2720,2783,4765,9029,cccgtagaga
57,20,203,1011,1142,1826,1837,2290,2897,3334,4539,4733,5119,5232,5303,5600,6155,6469,6541,7107,7408,7467,7745,ttcgcctatt
58,2,208,270,307,tcgaaagaaa
59,86,213,224,231,245,321,498,552,621,633,656,679,862,897,945,994,1030,1041,1043,1079,1090,1141,1151,1171,1303,1430,1443,1469,1573,1905,1967,2056,2107,2143,2444,2456,2472,2527,2735,2830,2889,2905,2922,2953,3207,3430,3551,3827,4201,4402,4502,4614,4693,4772,4815,5038,5184,5230,5293,5896,6210,6243,6252,6275,6418,6492,6543,6547,6652,6719,7270,7484,7636,7650,7866,7926,7948,7989,8350,8394,8632,8957,9051,9065,9114,9339,9676,9966,tcggtagacc
60,6,214,246,455,609,750,1524,3059,acgatagaga
61,10,216,388,610,657,760,1087,1561,1914,2163,2962,3179,ctttagggcg
62,4,228,810,2787,3338,3371,cccgtagagg
63,4,229,979,1535,2013,4496,cttaaagaca
64,2,230,304,1899,acgatactca
65,2,232,924,1015,ccggtcttaa
66,16,233,582,752,1012,1130,1213,2555,2654,3114,3758,3903,4945,5569,6131,6636,6726,8597,ccttagtaca
67,9,234,566,739,837,1422,1775,3342,4303,6857,7658,cttcgcccaa
68,5,237,910,1396,2141,3165,9058,tcggtagaca
69,13,242,271,378,972,1004,1339,1852,2000,2350,3172,3508,5425,6027,8753,tctgtagagg
70,1,248,303,cccgtctaga
71,3,250,673,5402,6204,ggcatagagg
72,3,251,489,1008,9175,cgtcgagaga
73,12,256,854,1384,1746,1766,5987,6925,7074,7952,8265,8587,9273,9699,agccagtaca
74,3,260,622,7725,8369,agctagtacg
75,4,263,457,493,1200,1468,tcggcataac
76,3,269,1283,2737,5305,tatgtagacc
77,3,273,331,436,838,ccggtcccga
78,1,277,675,ggcgaaccag
79,3,284,295,325,1963,tctggaggcg
80,9,289,318,357,733,2672,6041,6177,6221,7488,8201,cttggagacc
81,3,290,630,1326,1732,tctgggtaag
82,6,291,412,764,809,1194,2338,5867,ggcgtagaga
83,15,292,504,832,887,939,1237,1294,2848,3437,3797,6564,6996,7825,8492,8671,8685,ccggtagacc
84,15,297,354,408,528,596,636,803,1216,1330,1532,1715,2249,2310,2581,4746,7592,cgtgtagaaa
85,5,301,486,1089,1117,6580,7700,ttcgtgtgcg
86,10,310,804,1221,2542,3204,3249,3400,5085,5312,5879,9212,cttaaataca
87,14,313,669,1038,1510,1842,2175,2192,2519,3547,3935,4324,4725,5073,5444,6663,ctttagccac
88,7,316,801,1467,3324,3660,5272,6300,8833,cgtggagaga
89,14,320,477,558,771,1280,1474,1883,2117,2273,2547,3135,3550,6575,7633,8922,ttgccctatt
90,2,322,3055,3062,agcggtacaa
91,4,329,650,1367,3314,4119,ctcgtagagg
92,10,330,1365,1995,2082,4915,5035,5986,6451,6888,8855,9234,tctgtagaaa
93,3,332,438,2234,2773,cttcacccaa
94,3,334,3031,6833,9341,cgcgtagaaa
95,1,337,9946,tccggataac
96,6,340,4084,4396,6966,8975,9638,9642,cctgtagaaa
97,72,342,391,500,574,723,812,856,916,1315,1331,1682,2053,2244,2596,2873,2885,2902,2985,3192,3193,3257,3296,3587,3710,3771,3812,3839,3844,3899,4079,4135,4139,4541,4564,4792,4925,4935,5029,5256,5430,5664,5688,5813,5856,5887,6138,6298,6599,6684,6834,7109,7279,7698,7807,7886,7962,8026,8034,8128,8145,8204,8215,8495,8863,8912,9030,9048,9235,9256,9351,9400,9812,9862,tcggtataac
98,35,343,647,860,963,1188,1439,1730,1840,1868,1972,2026,2126,2422,3164,3936,4365,4411,4625,4627,5501,6213,6236,6386,6785,6861,7345,7635,7805,7904,8189,8761,8790,9019,9141,9220,9687,tcggtagagc
99,1,345,1010,actgagtaca
100,3,346,1537,3005,6385,ggtgtagagg
101,1,347,521,cacggagacc
102,3,348,1177,3632,9036,ccgctgctaa
103,29,352,1334,1590,1629,2631,3082,3145,3223,3329,3541,3830,3851,3911,3978,4291,4631,4773,5930,5975,5996,6257,6352,6455,6552,6713,7692,8868,9224,9241,9898,gtcgcctatt
104,9,355,466,898,1300,1932,3698,4574,4862,6770,8199,tctgtagagc
105,1,356,1505,agcggtacgg
106,13,358,502,1024,1101,1146,1930,2096,2316,2695,4661,4966,5917,6056,9002,cgtgtagaag
107,4,361,4889,5332,6145,6322,agttagtaca
108,3,363,1281,5351,9606,tcggtagacg
109,4,364,1250,2584,4216,5388,tttaaaggcg
110,2,365,1582,1917,ctttagttcg
111,31,366,463,503,575,599,632,635,711,749,778,905,1048,1070,1349,1391,1516,1828,1851,2091,2346,2550,2588,2711,2746,3212,4156,4819,5746,5933,5978,6106,7489,cttgtagagc
112,5,367,892,2604,3425,7031,7052,tcggtagatg
113,7,369,546,1494,2561,3288,4207,4213,4441,ctttattaca
114,5,372,926,929,2609,3376,4052,catgtagaga
115,61,373,469,532,620,712,740,821,1282,1298,1442,1579,1961,2200,2227,2237,2420,2506,2618,2758,2987,3105,3243,3493,3963,3997,4283,4613,4698,4705,4798,4839,5058,5107,5200,5359,5393,5659,5745,5947,5985,6129,6205,6410,6428,6596,6920,7084,7256,7283,7532,7741,7824,7896,8030,8298,8299,8383,8693,9006,9199,9383,9838,tcggtatacc
116,28,377,729,732,779,880,1069,1323,1457,1459,1481,1529,1615,1894,2043,2356,2652,2715,2743,2822,2863,3629,3953,4071,5004,5784,6811,6994,7415,7702,tcggtagagg
117,7,379,726,1660,1708,2110,2634,3561,7369,ctttagtacg
118,8,382,434,1909,2972,3527,4339,5920,8296,8757,tctggagagg
119,1,383,1432,ccttaataca
120,5,384,551,1632,1695,4766,4967,tcggtggaga
121,2,387,1445,2477,acttagtacc
122,3,390,908,2085,4779,ctcgtaggtg
123,6,392,2858,5587,6496,6883,7713,9401,ctttaatacg
124,3,393,3061,4949,4956,cttgtagagg
125,1,394,583,cttgtgtcca
126,1,395,4301,tgcgactaac
127,9,399,1099,1717,1781,2763,2804,5792,6035,6476,8483,tctgtataac
128,1,400,3144,ggcaacgaac
129,3,403,659,2507,4910,acggtaggtg
130,1,405,3175,cctggaggca
131,5,407,484,1578,2847,3307,3691,caggtagacc
132,1,409,967,tcggtataga
133,1,410,830,cttgcatacc
134,4,414,661,780,1260,8177,cctaaataca
135,1,415,9286,ctttcataca
136,6,417,919,986,1559,1699,2790,5124,ctcgtagagc
137,2,419,9771,9945,ttcgtgtaca
138,3,421,1838,2039,3613,tcggcagacc
139,6,422,540,604,1728,4976,5999,8279,tctggataag
140,2,423,1019,1102,ccggtctaga
141,1,424,912,catgtgtaag
142,15,427,515,1368,1460,1653,1881,2102,2480,3071,4404,4690,5174,5517,5594,7352,7861,ttcgcttaca
143,6,430,1084,1488,2600,4092,4617,5736,tcttagggcg
144,2,431,1891,2888,ggcaactaag
145,1,432,1065,cgtcgagagg
146,6,441,948,1217,1242,1378,2521,4343,catgtagaac
147,4,442,930,2322,3924,6233,ttttagtgcg
148,4,443,446,603,6283,6472,tcgggataac
149,3,444,777,1212,2231,ggcgtattag
150,1,448,8631,cttgcttaca
151,4,451,2628,4217,5065,6003,ttgataggtg
152,2,456,1156,1829,gttgtaccgg
153,2,467,822,4537,cccgtagcga
154,5,470,2760,3532,5965,6657,8216,ttcgtagacc
155,6,471,1278,3595,3722,5093,5950,9198,ctttaggaca
156,6,472,539,831,847,1238,1790,3143,ctccaaggcg
157,5,474,680,1892,4261,4423,5076,ccgatagaga
158,1,478,1650,tcgggcgaga
159,8,480,705,1393,3331,5394,5511,7439,7923,8257,tccgtagaac
160,1,481,1108,cttggataag
161,1,483,9874,ccgcgcgaga
162,3,485,1253,1835,5246,tctgcttaac
163,1,491,6798,cttgcataca
164,10,495,606,949,1340,2995,3146,4320,4742,7331,7546,8105,agcctttaca
165,1,496,2226,catgtagagc
166,31,497,527,593,724,1179,1205,1296,1904,2024,2327,2440,2496,2660,3138,3335,3398,3667,3740,3829,4023,4098,4177,5176,5181,5626,6574,6640,6967,7088,7215,7370,9782,ttcggaggtg
167,1,499,617,ccggtcgacg
168,21,505,885,1132,1176,1380,1563,1666,1799,1886,1996,2121,2818,3036,3536,4424,4477,4938,4999,5436,8385,9147,9624,ctttacccca
169,2,506,2491,3097,tctggaggtg
170,4,507,743,766,1064,8818,agctagtaca
171,5,509,1033,1771,3623,4382,9025,ccgcaactaa
172,7,510,572,728,1364,1612,2391,5020,9645,ctctagtaaa
173,11,512,1743,2099,2194,2429,5156,5635,6065,7695,8532,9010,9033,ttcgagtaca
174,9,513,542,920,1698,2610,3106,3120,3535,4505,4718,acttagtaca
175,3,514,561,985,1606,ttcgtgtaag
176,23,518,817,906,1374,1741,1836,1848,2016,2123,2442,3606,3609,3640,4861,5276,6284,7217,7881,8078,8313,8654,8676,8686,9327,ccggtagaaa
177,2,519,999,1174,tgtggataac
178,6,520,755,966,971,1345,1610,2086,ccctagtcca
179,16,522,876,1759,1788,2495,2522,2963,3122,3598,3653,3662,3798,4864,6370,6766,8565,9458,ggcgtagacc
180,1,526,2638,tcggtctaga
181,2,530,1950,2624,cttgtagacg
182,9,533,570,765,1227,1276,1389,1602,1631,1940,3480,acgatagaaa
183,1,543,2626,tttgtagaag
184,9,548,1473,1951,2263,2891,3768,3971,4886,6767,9381,tctggagaac
185,26,549,987,1700,1884,2309,2688,2734,2952,3006,3054,3378,3775,3937,4091,4136,4176,4336,4356,4386,4439,4759,4880,5315,8820,9146,9296,9750,ttcccctatt
186,1,562,1164,tcccagtaca
187,2,565,2390,3658,cttcgcccca
188,4,567,1027,1154,1530,1809,ggtgtagaga
189,4,573,889,2252,2508,9202,ttcgggtacg
190,1,577,8775,cctgtagacg
191,3,578,1800,2964,4688,ccgctgcagg
192,1,579,4196,acgatagagg
193,1,585,796,atcgtagaaa
194,1,586,5841,tttaaaggac
195,2,587,665,1858,ttgatgtgtg
196,3,588,991,1639,3668,ttgggcgcac
197,5,592,2664,2920,5604,8564,9368,tctggagaga
198,8,600,1261,2215,2467,3852,4507,4592,5172,5821,acggtagaga
199,1,602,5575,cttcagtcaa
200,8,611,936,1166,1921,2458,2534,2827,3959,6188,ctccaatacg
201,17,612,1222,1386,2492,2546,3074,3315,3578,3663,3894,4391,4463,4708,5922,6655,7149,8112,8650,cctgtagaga
202,2,613,4893,9393,ccggtctaaa
203,16,614,798,915,1528,2185,2191,2722,3209,3239,4275,4344,6271,8044,8249,8770,9026,9818,cgcgtagacc
204,2,619,1165,2598,ctcgtagaca
205,22,623,1105,1286,1441,1630,1993,2466,2976,3276,3279,3372,3568,4029,4048,5449,5469,5945,6083,6839,7258,8017,8315,8796,tctgtagaga
206,1,625,1183,agtgtagagg
207,4,634,1756,6049,6406,9300,ggcgtagagc
208,4,637,1319,5811,7178,7523,tcggtataaa
209,17,638,815,2641,3849,4184,5357,5537,5564,6698,6919,7228,7608,7891,8742,9416,9732,9916,9972,tcgggatacc
210,4,639,2100,3854,3939,4469,cttggagaac
211,12,641,2784,5289,5479,5657,5901,6215,7040,7304,7425,8899,9481,9813,cgggtagaga
212,3,642,1887,2854,3388,ggtgtagatg
213,1,645,8404,ttcgtgtcca
214,1,649,4749,tgcaacgaaa
215,1,652,9522,tttgcataac
216,1,654,5188,cttcagtcca
217,12,658,993,2718,2807,3622,4858,4919,5350,7231,7654,8308,9183,9462,tccgtagacc
218,3,667,1902,4840,5656,ttgaagtgcg
219,1,668,6209,cgcatagacc
220,4,678,6167,6566,6959,8888,tccgtataac
221,4,681,1436,2382,3777,5447,cttggatagc
222,9,682,1709,1713,1825,1958,2093,3244,3390,5049,6013,ctttagtcaa
223,1,684,4843,cgtggagaaa
224,3,685,1617,2573,7163,ccggaagtaa
225,3,687,1490,1882,4781,cggatagaga
226,4,689,6071,7479,8434,9681,tgtgtagaaa
227,1,691,7839,cttgcttacg
228,3,693,1398,5439,8095,tgtgtagaga
229,18,695,918,960,1095,1392,1424,1978,2155,2399,2778,3320,3583,4521,4800,5241,5364,6111,6189,7353,ctctagtaca
230,4,698,1861,2427,2719,9836,ttcgagtatt
231,3,699,1067,1309,2285,cttggagggc
232,1,700,2204,tctgcagacc
233,2,702,2410,4383,agcggaacaa
234,11,707,975,1255,1501,2850,2933,3577,4841,6328,6746,8238,8633,ttcgtaggtg
235,3,710,2008,2438,2564,tatgtagaga
236,1,714,1358,ccggtacagg
237,1,715,1000,agcggtacgc
238,2,716,4979,5443,ctcggtaaca
239,9,717,1075,1813,1853,2127,4312,5607,7699,8135,9372,ctcgtagaga
240,1,719,4821,ccgatgctag
241,1,722,1541,atggtagaaa
242,2,725,840,894,catgtagagg
243,3,730,1526,5187,7453,catggataac
244,1,735,2116,acttagcaca
245,1,742,1148,tctggaggca
246,12,744,1293,1328,2042,2682,2896,3385,3566,4355,4415,4810,5294,6004,ctccagtaca
247,10,745,1120,1451,1793,2461,2747,3236,5371,5899,6529,6530,cttcaataca
248,10,746,1538,1674,2015,2369,5022,5285,7115,7619,8117,9521,ccggtagagc
249,1,751,3355,agtgtagaaa
250,5,753,1609,4503,6378,8181,8721,taggtagagg
251,1,756,954,attgcatacc
252,3,757,1680,2034,2663,cttgacgacc
253,26,758,781,911,1292,1506,2262,2318,2424,2431,2515,2608,2698,2916,4776,4782,4790,5426,5547,5992,6067,6376,7595,7677,8291,9225,9529,9787,ctttaataca
254,10,761,1336,1498,2595,2668,2878,2940,3492,4426,5026,8500,ctttagccaa
255,3,768,886,1818,5584,cttgtgtaag
256,7,769,3028,3612,3868,4125,4600,6452,9248,cgcggagagg
257,4,770,1246,2384,2454,3745,cttgtagacc
258,6,775,1270,1745,3275,4329,6624,8982,ccggtagaac
259,1,776,1974,ccctaatcca
260,7,782,5259,6317,6903,8437,8539,8544,9435,ttgggaggcg
261,5,783,1819,2629,4221,5231,5409,ggcgtaccag
262,1,784,2046,tctggggagg
263,5,785,1478,5441,6241,6816,7997,ttcgtaggcg
264,18,786,1397,1569,2065,2149,2304,2706,2820,3336,3414,3558,3637,3756,4035,4763,5198,5382,6063,9901,cttgtagaga
265,1,787,3421,cgtgtagagc
266,2,788,7668,9094,ggcatcgacc
267,19,790,851,1372,3571,3586,4357,4557,5482,5620,5650,5699,6932,6990,7738,7782,7909,8427,8996,9447,9869,tctgtagacc
268,7,792,1284,2570,3396,3910,4058,4159,6382,ctgatgtgca
269,10,794,1107,1554,1869,1992,4903,5254,6308,6701,8116,9133,ctccaataca
270,1,797,843,cgggtagaag
271,4,799,3157,4197,6164,7567,tcctagtaca
272,2,800,1369,2069,catgtaggtg
273,3,805,1500,2469,2520,ggggtagagc
274,2,820,5700,9508,tgtgtatacc
275,9,823,1765,2635,4628,5034,5190,6554,6972,7729,9243,ctctaataca
276,12,826,1248,1764,4307,5282,5459,5974,6144,6148,6422,6444,7417,7938,agcgcttacg
277,1,828,7624,catggagacc
278,9,833,1059,1074,1916,2078,2516,2653,2914,4721,9877,ctttagtaaa
279,3,834,982,1357,1991,attgtagaga
280,1,835,8774,ttgagaggtg
281,2,836,3748,7265,cgcggataga
282,16,839,1670,2135,2197,2361,2511,3016,3330,3890,3901,4070,4445,7054,7497,7502,7786,9121,tctgtatacc
283,4,844,1450,1890,2614,4400,atttagtaca
284,22,845,1144,1508,2083,2088,2144,2942,3126,4075,4353,4354,4780,4907,4975,5037,5237,5321,5932,6185,7321,7747,7879,9410,tctggagacc
285,6,846,2072,2536,5597,7509,7820,8452,ccctaataca
286,1,848,3343,ggcatcgaga
287,6,857,4100,5269,5543,6511,6781,7987,ctttaccccc
288,4,861,1077,1346,1416,4530,tcgatagaaa
289,3,866,1479,3037,3217,cttaattaca
290,4,868,2988,5528,6790,7376,cttgggtaca
291,1,869,1649,tctgtcgaga
292,2,871,6952,7757,tgtgtagagg
293,2,878,1552,1981,caggtaggtg
294,3,879,1922,7600,9634,cttaaatacg
295,5,881,959,1152,4847,5529,7233,agctatgaca
296,4,882,4734,7106,7413,8155,ctcaacgagc
297,2,890,2060,2839,ttcgttggac
298,1,895,7100,cccgtcgaga
299,1,896,3409,agccgctaac
300,1,900,6196,ctttagtaag
301,1,901,4392,tctgtcgaac
302,3,902,989,4686,9629,tctggatagg
303,2,903,1628,4116,catgggtaaa
304,3,907,1245,3294,4432,tcggtaggtg
305,2,913,1607,3438,agcggtaccg
306,2,917,2301,2465,tcttagtaca
307,3,921,1229,1919,2473,catgtctaga
308,4,925,1671,3197,5955,7207,cgcgtaggtg
309,1,931,3413,ccggtagcga
310,1,933,6036,cctgcataca
311,4,934,1946,1982,2132,6266,cttgtagggc
312,4,937,1110,3077,3661,7503,cttggagagc
313,2,943,1458,1651,ttgatagatg
314,5,944,1329,5666,5764,7080,9355,cgggtagaaa
315,1,946,2815,tctgcttagc
316,4,947,1763,2990,3134,3392,cggaaagaga
317,14,950,2946,4430,4570,4927,5043,5712,6285,6548,6668,6710,7924,7961,8821,9988,ctttactaca
318,2,953,1129,1167,acgaaagaga
319,7,961,2176,2289,3047,5475,6232,7562,8778,cgggtagacc
320,4,974,1351,1507,1776,6521,ttcgtatgtg
321,4,978,1513,2035,2319,6109,caggtagaga
322,10,981,1839,2997,4311,5130,5255,6556,7383,8516,9811,9949,tgcgtagaaa
323,1,984,7140,ctccaatatt
324,2,992,3491,7004,ttgggtactc
325,2,998,2421,6563,ctcggagaga
326,1,1016,1277,cgcggagaag
327,3,1017,1489,2883,5319,tatgtagaac
328,1,1018,3450,cttgtcgaga
329,2,1020,6531,8829,ctttagcaaa
330,7,1021,2486,3073,4934,4939,7125,7380,8121,ccggtagaag
331,4,1023,1564,5538,6357,6504,ctctagtcca
332,1,1025,4027,ttcgagtata
333,1,1028,1385,catgtagaag
334,6,1032,1317,4367,5875,8422,8611,9536,tccgtagagc
335,1,1035,9457,cgcgtagcga
336,7,1036,1119,1929,1941,2510,3540,4583,9277,ccggtaggtg
337,1,1037,1420,caggtataaa
338,1,1040,1169,ttcgggtcca
339,2,1042,4644,6095,ctttggtaca
340,6,1044,1738,1845,2866,3625,4384,4968,ctttagccca
341,4,1046,2140,2279,2606,4337,acgaaagacc
342,4,1050,2184,2388,3252,3639,ttctattatt
343,3,1054,4913,6287,6832,attggaggtg
344,1,1055,1116,ctcggataac
345,2,1058,5372,8823,cgcctttaca
346,2,1060,2240,3259,cttttgggcg
347,4,1063,4497,5213,5248,9178,tgtgtagacc
348,2,1066,2105,2829,ccggtgtaca
349,2,1071,4044,5803,tccgtagaaa
350,4,1083,1220,4888,9431,9922,tgcgtagaga
351,3,1085,2806,3302,5676,agcggtaaca
352,4,1091,1787,3553,3784,5893,acggtagagg
353,14,1093,3064,3190,3235,3981,4059,4713,4914,5138,5567,6104,6332,7301,8222,9303,tcgggagacc
354,2,1104,3260,6362,ccgggagaga
355,2,1112,1798,3537,ctttaaggcg
356,11,1113,1647,1871,2812,3295,3408,4089,4566,4932,5304,7539,8509,ggcggaggtg
357,1,1114,1133,ccttaaggca
358,1,1121,3665,ctttagtccg
359,5,1123,2435,2642,2903,3375,7645,tcggcatacc
360,7,1124,1658,1721,1873,2161,2375,3152,4649,ctcgtagacc
361,2,1126,1970,7706,ctggtctaga
362,1,1128,3717,cccggaggtg
363,7,1136,1608,2061,2277,2380,2463,3151,3417,cctaagtaca
364,2,1137,7990,8178,tttgtaggcg
365,1,1138,4155,ccgatactaa
366,4,1139,1275,3019,3169,4588,tcggactaac
367,1,1140,6367,ctggtctacc
368,5,1145,2403,5407,5466,5979,6697,ggcgtagagg
369,8,1150,1622,3038,4416,4648,6497,6609,7831,8584,ttttagtaca
370,1,1155,1191,ccggtcgaaa
371,1,1159,2012,ggggtattag
372,1,1160,4073,cttaattgcg
373,12,1161,1774,2282,3010,3131,3518,4321,5421,5747,6933,7422,7643,8690,ttctagtaca
374,9,1162,1243,2513,2817,3925,4270,5704,6424,7687,8697,cttggagaga
375,1,1175,9678,cgcgtataac
376,2,1178,1744,3447,ctttagggaa
377,2,1184,3779,3927,tctgcatacc
378,2,1186,4612,7187,ttggtaggtg
379,5,1189,1903,4360,6538,6633,6845,agcgcgtacg
380,1,1190,1664,tgctcttatt
381,1,1192,5895,ttttattacg
382,1,1193,6675,tctgggtact
383,3,1195,2445,3141,9482,tgcggagaaa
384,1,1196,2625,cttttttaca
385,1,1197,2223,atcgcaacaa
386,4,1207,6757,6961,8549,8983,tcgggagaga
387,5,1209,2315,2334,2553,3313,6369,ctttactatt
388,4,1211,2884,3161,3499,7046,ctttagtaac
389,1,1214,1735,ctttagtgga
390,3,1215,1701,5309,9931,tttggagagg
391,4,1232,1269,5772,8165,8998,ctcggaggta
392,4,1233,3820,7621,8521,9840,tcggtcgacc
393,6,1239,4611,5525,6286,6725,6794,9886,ttcctttaca
394,1,1240,1596,ccttagtacg
395,1,1247,6194,ctttacccac
396,3,1249,3030,3960,5257,caggtagagc
397,2,1254,2855,5165,ttgatgtaca
398,1,1257,3459,cctgggtaca
399,3,1258,1492,2292,3214,tctggagacg
400,6,1264,4900,5183,5404,7466,7684,8906,cgcatagaag
401,22,1266,1565,2404,2482,3264,3382,3387,3600,3666,4062,4457,4638,5471,5738,5751,6413,7000,7325,7492,7915,8092,8340,8491,cttcagtaca
402,3,1267,1847,4571,5288,ttcgtagagc
403,1,1271,4833,cttggataga
404,1,1272,1716,cacgtagacc
405,1,1273,8513,ctggtagagc
406,7,1285,2129,2640,3304,4294,6094,6314,6823,ctttagtatt
407,7,1287,1657,2068,3836,4375,5592,6534,9295,cctgctgagg
408,3,1288,1600,4547,6052,ccccagtaca
409,3,1291,1925,3445,3597,cccgtagacc
410,2,1301,5467,8956,ttcgtataag
411,6,1302,2772,3507,4580,4824,5284,5669,ggcggataac
412,1,1304,7524,tcgaaagaga
413,1,1311,3093,cttcaccaaa
414,2,1313,1557,7928,ttgggttatt
415,15,1316,1634,2007,2381,3877,4931,5059,5683,6495,7060,8368,8388,8408,8936,9502,9911,tcggtagaac
416,5,1324,2266,2959,3626,3909,8058,ttcgattatt
417,8,1325,3208,3870,3992,5131,5648,6026,9044,9143,agcctttacg
418,4,1347,2975,3693,8852,9042,ctttagtgca
419,4,1352,1633,1641,1777,3495,cttgtgtgcg
420,1,1354,2843,ctcaaagagc
421,2,1356,2370,6664,cccaaacaca
422,1,1360,1429,cttgtgtccg
423,2,1361,8168,8987,ctctatgaca
424,2,1362,6001,7381,ctggtcttgc
425,1,1363,2395,actaaataca
426,1,1373,3861,ttggtagagg
427,1,1377,1860,ttctagtgcg
428,2,1382,6394,8797,gtgccctagc
429,2,1383,7173,8670,cttggaggtg
430,1,1387,2701,tctaggtaag
431,3,1395,1748,2726,4114,tttaaaggtg
432,1,1400,3362,acgggagaac
433,2,1401,1761,2189,ggcgtattac
434,1,1402,4743,ttgatgtgca
435,4,1403,2002,2670,3689,5649,tctgtaggtg
436,1,1404,1872,ctccgctaca
437,2,1406,4730,8827,cttggagaca
438,3,1407,5185,8718,9078,ccgggagaac
439,2,1412,1599,9802,cttgtgtaca
440,4,1414,4374,6656,7629,8101,tcggtaggcc
441,3,1417,1752,4152,9375,ttcgggtata
442,2,1418,2328,2396,tcgggataag
443,2,1419,6525,7840,gttgtagaga
444,2,1425,1821,3080,attgtagagc
445,1,1428,7023,tcggtatacg
446,1,1433,4860,agcggtacca
447,3,1435,2076,2954,5880,tctaagtgcg
448,1,1438,2960,ctttgaggca
449,1,1452,3982,tctgcctacg
450,1,1453,6621,ccctaagaca
451,2,1454,3195,7261,cctggataac
452,6,1465,2298,2704,3196,4492,5006,7145,catggatagg
453,2,1466,4257,7482,ttgccctacg
454,1,1471,7864,ggcgtagaag
455,2,1475,1893,5752,ttcggagagg
456,1,1476,2949,acttaggccc
457,1,1482,1805,cgtgtcttac
458,1,1484,1514,tctgtattag
459,2,1486,1733,8606,tttgtagagg
460,1,1487,8505,ctctagccca
461,6,1491,2744,4066,4358,7880,9421,9639,tgcgcttaca
462,4,1493,2147,2591,3719,7260,tcggtaggtc
463,2,1495,4223,9112,tttgtaggtg
464,5,1511,2251,2441,3725,4053,5948,cgcggaggcc
465,2,1518,6551,6797,ctccagtcca
466,3,1521,7319,7992,9145,gtcggtactt
467,3,1523,4117,5005,8780,ttttaggaga
468,3,1527,2250,2295,7750,gggccctatt
469,2,1542,4113,4778,tcgatagaac
470,2,1543,2459,3219,cgtgtagaac
471,2,1545,3321,9970,ttcgagacta
472,1,1546,9775,tctcgagagg
473,1,1547,6900,ggcgtataac
474,1,1551,2089,cctaaagaga
475,1,1560,4953,tctgtataag
476,1,1567,6466,gtgggtactt
477,2,1568,1710,2927,ctttagtata
478,3,1570,2358,2941,4088,ctttaggagg
479,1,1574,6269,agcgagtaca
480,1,1576,2180,tttgagtgcg
481,2,1583,7332,9360,tcgcgcgacc
482,6,1585,3581,6441,6581,6880,7435,9333,tcggtatagg
483,1,1587,6894,ctgtagtaca
484,9,1593,1734,2157,2498,2567,2575,3750,3941,4032,8457,tcggtagaag
485,1,1594,2530,ccggtgtaaa
486,2,1595,2253,5863,ggggactacc
487,7,1597,1724,1957,2846,3206,4232,5760,5849,acggtagaaa
488,1,1603,4676,cctaagtcca
489,1,1605,9509,ctgaactaac
490,3,1614,2999,3656,3790,cttgtagaaa
491,2,1620,3723,6130,tctggtacca
492,5,1621,2254,2823,3426,6868,7203,ggggtagacc
493,1,1624,2272,ctttagtcac
494,23,1625,1694,1740,1802,2347,2418,2880,3873,3883,4129,4381,4562,5028,5252,6211,6760,7114,7315,7955,8281,9034,9596,9602,9834,tctggatacc
495,1,1626,2759,tatgtgtcaa
496,3,1640,3103,3972,4269,tgtctgcacc
497,1,1645,8692,agccgataca
498,4,1646,2849,3326,5300,7127,ggcgtatacc
499,11,1648,1979,2731,2739,2966,4921,5186,6342,7275,7398,8190,8903,ccgggaggtg
500,3,1667,1931,4050,6573,tgcggctaac
501,1,1669,1672,ctttaggacc
502,2,1676,2462,5438,ttcccctact
503,3,1678,5697,8202,8307,ggggtagaga
504,1,1683,2712,ggcgtaccga
505,2,1697,7785,8568,ggcatagagc
506,3,1704,4712,7667,9947,tgtgtagaac
507,1,1711,1876,ctcggaggcc
508,2,1719,1966,2212,tgctcaacaa
509,8,1720,2323,3188,3379,4696,7505,8446,8570,9729,tgcggaggtg
510,1,1722,6597,actggagaga
511,8,1727,2446,2478,3907,4230,5695,6060,7005,8961,tctgtagaac
512,1,1736,8885,ccgggagacc
513,8,1750,2209,2832,3280,3365,3433,5641,7976,9454,tgcggaggaa
514,1,1751,6557,ttctattaca
515,2,1753,2504,6220,tcggggtacc
516,1,1755,4239,ccctaggaca
517,1,1757,5634,ctcggttaca
518,2,1760,2128,6494,ctggtagaac
519,2,1767,2341,3822,gtgcccgcat
520,2,1769,3706,5160,ttcgtagacg
521,4,1770,2188,4204,6827,7119,ctgatgtaca
522,7,1780,2554,3429,5146,6048,6592,8223,9223,ctccagtatt
523,4,1783,2874,2930,3463,6402,tttgtagaga
524,1,1785,8924,agcggtgaca
525,1,1789,4591,taggtagaga
526,3,1791,6570,7473,7707,ctttcctatt
527,1,1796,8850,ctgatgtaaa
528,1,1801,8317,ctcggagggg
529,1,1807,2540,atcgtgtaag
530,1,1808,2548,cgcatagagg
531,1,1815,2611,ttcgagtaga
532,2,1824,3975,4341,cgttagtaag
533,10,1827,3464,4662,4922,5366,5766,7108,7515,8533,9089,9755,tctggagagc
534,1,1841,8290,cgggtataga
535,2,1843,5450,7238,ctgcagtaca
536,4,1849,2257,5630,7075,8475,ttcccctatg
537,2,1854,5775,7082,ctttagcacc
538,1,1855,3736,tctgggtagc
539,1,1859,7210,ctcggagatt
540,2,1862,3848,8003,ctggagtaca
541,3,1865,2493,4123,4143,tctggtaaca
542,5,1878,2681,4094,4785,6988,8902,tcggagtaca
543,1,1879,9249,tatgtgtacc
544,4,1888,2130,2694,4869,5054,tcgatagaga
545,1,1889,2779,cttaaagacg
546,3,1895,2678,3539,4072,attggagaaa
547,2,1896,4003,7091,ctcgggtacg
548,1,1900,3549,tttgtataag
549,2,1901,5473,8086,ccgatagaag
550,1,1906,2761,ccctagtaaa
551,1,1913,2265,tcctagtaga
552,7,1915,3439,3677,3887,6077,8730,9039,9871,cgtgtagacc
553,4,1918,2371,2700,3110,5001,cggaaagacc
554,1,1924,2195,accgtagagc
555,1,1926,5928,cttccctatt
556,2,1928,6183,6558,aggcgcgcac
557,2,1934,3020,6348,ctcaaataca
558,2,1936,2494,2938,ttccccggtg
559,1,1939,2036,agccttaccg
560,1,1942,6315,gtgggaggca
561,1,1943,5342,tttgtagaaa
562,6,1944,2120,5045,6851,7986,8129,8662,tcgggatacg
563,7,1948,5386,5609,7272,7851,9136,9728,9751,ccggaagaaa
564,1,1952,3614,cgtcgaggtg
565,2,1953,2539,3303,ctttaggaac
566,2,1954,3100,8039,tcggtaggcg
567,2,1955,2657,9209,cttatgtgca
568,2,1956,5931,8057,ctcggggatg
569,1,1959,3942,atcgtaggtg
570,7,1964,3194,3744,4844,6927,7587,8064,9404,cgtggagagg
571,3,1971,5541,6289,6872,atggtagacc
572,11,1975,2392,2895,3594,4728,5274,5685,5943,7222,8143,9067,9270,tgcgtagagc
573,2,1980,4064,4890,attaagtaca
574,2,1985,3504,7034,ctttaccaca
575,1,1986,8367,cttaaaggca
576,1,1987,4046,ctgggaggcc
577,1,1990,7137,ctttactata
578,14,1997,2416,2651,2932,3462,3510,5215,6200,6702,8197,8212,8880,8970,9515,9757,tcggtctaac
579,1,2003,8727,ttgcattatt
580,11,2004,4610,5263,5273,5503,5989,6217,6615,6860,7977,9501,9993,ctttagcaca
581,13,2005,2362,3198,3406,3481,3976,3987,4952,5544,5802,7730,8344,8569,9452,ttggtatacc
582,1,2011,3889,cttgtataac
583,3,2014,3749,6246,7572,attggcgcac
584,2,2018,2690,5068,tctggagaca
585,3,2019,2939,6414,7336,ctggtaggtg
586,2,2022,2910,5464,cctgtagagc
587,1,2027,2876,ctggtctgtg
588,2,2029,7010,8274,ttcggaggcg
589,2,2030,4449,8933,cgcgtagagc
590,1,2032,9130,ctcggggagg
591,1,2047,3931,cttgtaccag
592,1,2050,3813,cttgtaggcg
593,1,2052,2243,tcggtgtacc
594,6,2054,2372,3516,3850,4090,6028,9745,atcgcttaca
595,9,2059,3220,4259,4899,5099,6084,7384,7386,7662,9617,ttccggtacg
596,1,2063,3781,atggtagagg
597,9,2064,2669,3418,3522,5458,6137,7250,7362,9309,9619,ctctattacg
598,2,2066,2991,9520,tgcctttaca
599,7,2067,2103,4407,4525,4572,4641,5733,6509,gtcccctatt
600,3,2077,2777,2945,8276,atggtaggac
601,2,2080,2993,3557,cccttataca
602,1,2084,3585,agcgcgtaca
603,9,2087,2377,2569,3631,3898,5726,5891,6754,7176,7356,gtgccatatt
604,1,2090,4120,gtgccctaca
605,1,2092,6465,ccggagtgga
606,1,2095,4735,tcggaatacc
607,1,2098,3154,cttccctaca
608,1,2104,2816,ttgggaggac
609,1,2114,3446,caggtgggcc
610,3,2115,3488,3763,6500,cgcgactaga
611,6,2124,4892,5129,5640,5672,6560,8716,ccgcaagaaa
612,11,2134,3619,4352,4918,5150,5170,6198,6533,7758,8138,9386,9541,tgcgtataac
613,2,2136,2732,4105,cgcggaggtc
614,1,2137,3489,tttaaaggtt
615,5,2145,2313,2768,2864,4121,4667,ctttaggaga
616,1,2148,8428,tcggtatgtg
617,1,2153,2352,tcggtcgagg
618,1,2154,7324,gttgtagagc
619,2,2156,3760,6114,tctgaagacc
620,1,2159,8696,atccaaggct
621,2,2164,3258,3878,tcgctgctaa
622,10,2167,2745,2801,2856,3354,5314,5729,5754,5804,6119,6838,tcggaagacc
623,3,2168,3634,3962,6251,ctcgattatt
624,6,2169,2875,4309,4990,6637,7542,9436,tcggtataag
625,2,2172,7371,8951,attcagtaca
626,1,2178,8944,ttgcccgatt
627,1,2179,2921,ttggtagatg
628,5,2186,2986,3818,3998,6105,6310,cgaagctaac
629,1,2193,3765,attaagtgca
630,1,2199,3225,actggagggc
631,1,2201,4181,cttcggtaca
632,2,2206,3042,8302,ccggtcttga
633,2,2208,2643,9484,ccgcaacagg
634,2,2217,3764,6393,tcgatagagg
635,1,2230,7025,ttcggcgcac
636,5,2238,4225,4556,4683,8228,9003,cgtggagagc
637,5,2239,4554,5728,6404,6498,7697,cttcaatacg
638,2,2247,3359,3949,ctctgcccaa
639,5,2255,3682,3875,5291,5457,5868,catggatagc
640,1,2256,8292,cggaaagagg
641,1,2264,3397,tcgggaggca
642,1,2267,2886,atgcccgcac
643,3,2268,3730,4609,7428,ctcgaatacg
644,5,2275,3732,6821,8067,8330,9171,ctttagtacc
645,1,2278,5618,ttgcagtacg
646,8,2286,5749,6149,6302,6546,7490,9197,9512,9588,gtgccctatc
647,1,2288,8588,ctttactaag
648,1,2293,4630,tttgtgtaag
649,2,2296,8103,9068,ggcgtagaaa
650,2,2297,2970,4620,ggcggaccag
651,1,2299,6097,ccgtagtaca
652,4,2306,6176,6714,7036,9957,ttttagtacg
653,6,2312,3344,4599,5072,5420,6168,7190,cttgtaggtg
654,6,2317,2749,5771,6174,7552,7959,8000,ggggtagaaa
655,1,2325,4561,ctcggagagc
656,1,2329,4789,tttgggtacg
657,3,2331,4043,5234,7155,tcttagtccg
658,2,2332,5012,9557,gtgccctata
659,2,2333,7448,8040,ctggtcgaga
660,1,2337,4348,ggcggagatg
661,8,2340,5705,6171,7308,7732,8063,8661,9232,9682,ctccattacg
662,2,2344,7847,9773,ttttagtata
663,2,2349,3913,8096,cgcgtaggcg
664,1,2354,4369,ggcgtagaac
665,8,2360,2685,3754,4030,4172,4632,6091,8511,9496,tccgtagagg
666,2,2365,5468,9709,cccggaggca
667,1,2366,6826,cctatagacc
668,1,2373,5909,cctatgtaca
669,3,2376,3647,4675,6147,ggcggagcag
670,1,2378,3347,tttgtagatg
671,7,2383,2703,4834,5470,6088,6965,7288,8668,ctggtcttgg
672,9,2394,2780,3575,4768,5679,6124,6871,7419,8325,8618,tcggactacc
673,11,2400,2950,3922,4850,5624,6191,6301,6904,7842,7930,9563,9644,ccggtagagg
674,4,2406,5253,6263,7420,9323,ttgagagagg
675,1,2415,6958,ctcaaaggcg
676,1,2419,2692,accatagaga
677,3,2430,3083,3349,3825,ctcgtagaac
678,1,2432,3091,gtccccggtt
679,2,2433,4235,4456,tctgcctatg
680,3,2443,5337,6984,7853,taggtagacc
681,2,2448,4724,6709,agcgccggtg
682,1,2449,3570,ccttaggaca
683,1,2450,7391,agcgtttaca
684,2,2451,2738,7796,agcgattatt
685,1,2453,3738,tctggatacg
686,2,2457,2741,4867,cgcggagaga
687,2,2460,4812,7908,ggggtagaag
688,1,2464,3099,cttaattatt
689,1,2474,3735,atttaccccc
690,2,2475,4315,7280,ttccaaggtt
691,1,2481,2728,cgggtaccga
692,5,2484,4097,4279,5534,5585,6058,ctttaatatt
693,2,2487,5682,8297,gtcggaggtg
694,3,2497,4134,5602,8024,tcggtaggta
695,3,2501,2665,3101,7916,ccggtcgacc
696,1,2503,3033,cgtatgctaa
697,1,2517,2757,tattaggaga
698,7,2518,3374,4838,5155,5731,6230,7044,7979,ttcgtagagg
699,2,2537,4271,7159,ttcggtaaca
700,8,2544,3592,3707,5075,5581,5632,7095,7410,8688,tgcgtaggaa
701,5,2545,2968,3739,4710,8358,8973,ctcgcctaca
702,2,2549,5341,8008,ttcgtatgcg
703,1,2551,4330,ttctaggaca
704,3,2552,3646,8941,9586,ttgggagacc
705,3,2557,2819,5897,7770,cgtcgcgacc
706,1,2558,4467,cgcatagaaa
707,2,2560,4328,5228,tcttagtacg
708,5,2568,3075,3184,4827,6513,8002,tctggtacta
709,2,2571,2899,3361,tgcgtgtgcg
710,4,2582,5151,6625,8419,8964,ttcggctatt
711,1,2583,7882,ctaagtactt
712,1,2585,4256,gtgccctacg
713,3,2586,6605,9050,9995,ccgcaagagg
714,1,2587,3485,agtggctaac
715,4,2593,4961,5842,6732,9646,ccgggagagg
716,2,2602,2851,3659,ttgccctaca
717,5,2603,3133,4251,5211,6622,7995,ctggtagaga
718,1,2616,2978,tcggtggaac
719,4,2617,8441,8542,8759,9380,tgggtagaac
720,2,2621,8205,8512,cgggtagaac
721,2,2633,3234,4258,tgatggtaac
722,2,2636,7167,9546,ttgggctatt
723,5,2637,2912,6870,7180,7564,7649,attgtaggcg
724,1,2645,4699,cgtggagacg
725,1,2648,8211,tccggagaga
726,1,2650,9749,ttgaaatgcg
727,2,2666,3348,9604,gttgcctatt
728,2,2674,7404,8715,ttggcctatt
729,3,2689,7798,8194,9055,tttaagtaca
730,2,2693,6598,8617,cctggggaca
731,2,2705,5101,5297,gttacctatt
732,4,2707,4238,5003,5554,8109,tatgagtaca
733,1,2708,7346,catgtatacc
734,2,2713,3174,4019,cttgtaggcc
735,2,2714,3576,5125,ttgggtaaca
736,2,2717,5765,9845,tcggagtgca
737,1,2725,4362,ctcggtaacc
738,8,2742,3727,4930,5071,6501,6976,7748,7906,9571,cccggataca
739,4,2748,3318,6588,8126,9760,ctctagtacg
740,1,2750,6399,gtccgcgcat
741,1,2752,9656,ttcgtagatg
742,1,2753,3203,ctcgtatacc
743,1,2754,3914,ataagtactt
744,5,2756,3788,5721,6763,8637,8746,cgcgtataga
745,2,2762,3904,8152,ttgggtaatt
746,1,2765,4401,atggtagaga
747,1,2766,4409,gtgcaatact
748,1,2771,3529,ttcgccgatt
749,5,2776,3724,5243,6850,7966,9944,cctggagaga
750,3,2781,5258,6651,8192,cgttagggag
751,3,2785,5416,6611,9578,ccgcaacaaa
752,2,2789,3111,4002,gtcgccgatt
753,5,2796,3746,4985,5836,6079,9344,cttaagtaca
754,7,2803,3142,3512,4252,4679,5411,5478,9184,gttggagagc
755,4,2805,3886,4049,5463,7463,tgcatagaaa
756,1,2826,7166,tttggaggcg
757,1,2834,5239,ctctagccac
758,4,2844,3762,4643,6730,8744,ctccacccca
759,2,2845,6181,6316,tatgctgaca
760,2,2857,7958,8725,cgtctagagg
761,1,2860,3298,tctgagtgcg
762,1,2861,3995,ctttaaccca
763,1,2862,9942,ccggtaggcg
764,2,2865,3089,3090,atgccctaca
765,1,2867,6711,tctggtactt
766,2,2869,5828,8849,ctcctttaca
767,1,2871,5838,atgggcgcac
768,1,2872,9566,catggataga
769,3,2877,3496,4737,9001,ctttgcccca
770,1,2879,5940,ggtgtagacc
771,3,2881,3173,6112,6762,gtgcactatt
772,1,2882,5791,ttgcgcgcac
773,4,2887,6023,7981,8158,9632,cccgagtaca
774,1,2901,4250,agcctttgca
775,1,2904,6403,ttgagtactc
776,1,2907,9176,tcgaaagagc
777,2,2911,5139,6117,ctctagtacc
778,1,2917,6681,gtctcctatt
779,7,2918,3601,5826,6350,6460,6667,7213,9963,ttggtagacc
780,2,2923,5152,6293,cccgtcctga
781,9,2925,4327,4972,5264,5558,5946,7282,8273,8999,9589,agttagtacg
782,6,2926,3729,3869,4825,5825,5968,8099,ggcatagaac
783,3,2934,5090,6778,9747,cctgtagaac
784,1,2936,7822,tgcgtagaca
785,1,2955,3564,ccgatagtaa
786,1,2958,6986,ctccaagacg
787,1,2979,4455,tgcggaggcc
788,2,2996,8054,8805,tttaaagact
789,3,2998,4687,5127,6517,tctcaatacg
790,1,3001,3262,tttagaggac
791,1,3004,4633,ttctattacg
792,2,3008,5209,9369,ggcggaggcg
793,2,3009,6799,7295,ctggtagggc
794,2,3013,4876,7561,cgtggataga
795,1,3015,7337,ggcggaggaa
796,1,3017,5286,atgggcagta
797,1,3022,4087,tttaacggtt
798,2,3024,3271,3628,cttcgccaca
799,3,3034,4212,5870,6267,gtgccctaac
800,1,3044,7947,ctttaggaaa
801,1,3046,5424,tctggaggcc
802,1,3048,4314,tacgtataac
803,1,3049,4067,tctcgcgaga
804,2,3053,3654,3705,tataaataga
805,1,3058,8377,cgcatagatg
806,2,3070,7446,8502,ggcataggtg
807,1,3072,3946,tgctattatt
808,1,3076,8698,tcgggatagg
809,3,3084,5197,6464,8429,tgcggaggcg
810,6,3085,5086,5495,5557,6011,6292,7594,ctttaccacc
811,2,3088,8375,9194,gcggactacc
812,1,3092,6039,tgaagtacta
813,2,3094,3685,8141,ttcggataca
814,3,3098,5399,9570,9796,tttggagaga
815,3,3104,3574,6595,8234,tggggagaac
816,1,3108,6963,ctctagtcaa
817,1,3112,6141,caggtagagg
818,3,3113,4236,5328,5878,gtgcccgctt
819,2,3115,8691,8717,gttggcgcat
820,1,3116,3967,tttaagtgcg
821,1,3121,4272,cgaagagatt
822,1,3123,5123,ctgcagtaaa
823,1,3132,9011,gtgccagatc
824,1,3139,4642,cttggagaag
825,1,3166,3697,cttggatagg
826,1,3167,5118,tgcgtgtgca
827,4,3170,3501,3650,5596,8320,ctccactatt
828,3,3177,6242,6438,7340,cgccgatacg
829,1,3178,7310,ctcccctaca
830,1,3180,5508,ttcgcgtatt
831,2,3181,6979,8371,agcccttaca
832,2,3182,4791,5812,ctttaggaag
833,1,3185,3742,tttgtatccc
834,1,3187,5881,ggggtcttag
835,3,3200,5532,6638,6960,tatgtgtcac
836,1,3201,4292,cttgggtacg
837,2,3205,4377,5370,cccgtttaca
838,1,3213,3357,tctggctata
839,1,3215,8963,cgcgtataag
840,7,3218,4745,5096,6672,7405,8059,8333,8838,tcgggagaag
841,2,3222,5861,7350,cccggagacc
842,1,3232,3284,cttgccgacc
843,4,3237,4390,4523,4647,5428,ccggtgtgcg
844,1,3241,9268,cccctttaca
845,3,3247,5959,6335,8641,tatgtataac
846,1,3248,9035,cgtgtaggac
847,1,3253,5616,ttccccggtt
848,1,3256,4106,cgcgtatagc
849,10,3266,3686,4319,4752,5027,6689,6905,7454,7714,8801,9059,ttcgtagaga
850,4,3268,4110,4179,4544,9126,ccctagtacg
851,4,3282,4131,4741,4788,8560,ctcggaggcg
852,3,3283,3453,4595,9139,tgcggagaac
853,2,3287,6755,7177,ccctattaca
854,3,3297,4102,5060,7795,ggcatctaac
855,1,3300,3794,ggcgtaggtg
856,1,3305,4074,cttggtaaca
857,2,3309,4042,4210,gtccccgcac
858,2,3310,7565,8389,gtcgtagaga
859,2,3319,5761,8645,cctgtaggga
860,1,3325,4992,tacgctgaca
861,2,3328,4681,5848,tcgatcgacc
862,4,3333,5014,6120,7181,8337,atctagtaca
863,1,3341,4524,tctggtactc
864,3,3345,5753,5777,6468,tctggggacc
865,2,3346,8100,8288,ttcgtagaaa
866,4,3350,4014,4481,6764,6928,ctctgcccca
867,3,3353,7470,8373,9069,tgggtagaga
868,1,3366,6021,atcgcctatg
869,2,3373,6518,9373,ctttaagaca
870,2,3380,6346,9389,ctttaatacc
871,1,3394,8978,ccggtcgaga
872,1,3399,5340,tttgtaggaa
873,2,3403,8869,8909,ccggtcgagg
874,6,3405,3548,5227,7537,7988,8680,8732,tcggtctacc
875,2,3407,4130,4816,gttgtaggtg
876,1,3412,9099,ctttatgaca
877,1,3420,4133,ggggtcgacc
878,3,3427,5267,6115,7339,ctggtcgagg
879,1,3436,9261,ccggtggaga
880,5,3443,6047,6918,8019,8353,8599,tcggtatagc
881,1,3452,4036,gtcgcatatt
882,1,3454,8193,ttggtctaac
883,1,3457,5911,ctcccatata
884,1,3460,4670,ttgtactatt
885,2,3466,4406,5057,tgcggagacg
886,1,3467,9693,tttaactatt
887,2,3469,5225,6506,ttccgatacg
888,1,3471,4882,tctcaagacc
889,5,3472,3563,4243,4959,5207,7784,acggtagacc
890,3,3473,5052,6679,7171,tctggatagc
891,1,3487,4532,acgatagaag
892,4,3490,6866,7472,7485,9748,tgcgtatacc
893,6,3494,5384,5758,7121,7584,8098,9987,ttcgcctact
894,1,3511,7191,tttgggtaca
895,1,3517,4842,cctgtagcaa
896,2,3521,5066,9317,ttcgcctaac
897,3,3528,3994,7053,9569,ctccagtacg
898,2,3533,5627,9908,ctcgtaggcg
899,1,3543,6086,cgtgtatacc
900,1,3544,5818,tactagtaca
901,1,3545,4874,atttaggaca
902,2,3546,4703,6231,tatggatacc
903,1,3555,6608,ctttgtactt
904,1,3560,4897,ggcaaagaac
905,1,3565,7444,ctgggagaga
906,2,3580,4719,9437,ccggaagaac
907,1,3584,5859,gggcgctatt
908,1,3593,6662,agcgcctatg
909,1,3602,6169,ttcagtaatt
910,1,3603,5406,ctgccctagg
911,2,3604,3945,8047,cgcatagaga
912,12,3605,5374,6532,6780,7081,7239,7950,8348,8501,8514,8908,9073,9668,tgggtagagc
913,1,3607,5244,ttggcctacg
914,1,3608,7020,cttggttatt
915,1,3611,5711,ttgaagtgca
916,2,3620,5703,8681,ttcgcctatg
917,1,3621,3845,tctgtctagc
918,1,3627,4576,cctggataga
919,2,3636,4006,4928,ctggtataga
920,3,3645,5735,6568,6897,cgcgtagacg
921,1,3651,5970,acctagtaca
922,2,3652,3801,7393,ttcgcctatc
923,3,3664,6948,7614,7954,gtcgcctatg
924,1,3683,5283,catgggtaac
925,9,3684,5226,5536,5776,6478,7057,7519,7772,7889,8094,ctttattacg
926,3,3687,6853,7433,9794,ttgggaggtc
927,1,3688,7205,ttcccctcac
928,2,3692,4924,5942,tcgggagagc
929,3,3694,5799,6964,9479,cttgcaggaa
930,1,3699,4517,agcgcctatt
931,3,3700,4161,6163,9417,tttcaataca
932,3,3708,4226,4950,5102,acggtagaag
933,1,3711,3773,atcctttaca
934,2,3714,5864,6262,cgcgcttacg
935,1,3718,4872,ctcgcttacg
936,1,3731,7050,cttcgcgaaa
937,1,3743,7385,ttaagcactc
938,3,3752,5837,6975,7951,agccattaca
939,3,3759,4579,5571,7778,ctcgagtatt
940,4,3766,5113,5892,7871,9211,ttcgcttacg
941,3,3774,6237,7823,9583,cctggagacc
942,1,3780,8354,tcggtctagc
943,2,3783,6727,7168,ttcgagtacg
944,1,3785,6992,tgcggagacc
945,1,3787,8074,gtaagttatt
946,8,3807,4465,5308,5387,7236,8140,8355,8705,9281,ttccggtaca
947,11,3808,4016,4267,4437,5245,5663,6390,7013,7292,8534,9320,9643,tgcgtagacc
948,1,3819,5598,ctggtctagg
949,2,3821,8162,8621,attggatacc
950,1,3824,5824,ccgggggatg
951,7,3833,6108,6795,7495,8025,8595,8615,9505,tgcgtagaac
952,1,3838,8582,ctcctttacg
953,1,3859,7361,ttggtataga
954,9,3862,6351,6364,7577,8577,8669,9032,9321,9696,9943,ctttagtact
955,3,3879,4137,5768,6742,gtcggctatt
956,2,3881,4909,6549,gccgtagacc
957,1,3884,4982,ggcggaggag
958,2,3895,4453,6345,cctgtaggtg
959,3,3897,4479,6136,8125,ctggtatacc
960,1,3902,6154,cttgtagggg
961,1,3917,4296,ctccttagca
962,1,3918,5219,ctgatgtcca
963,3,3934,4345,4534,9118,tccgtagaga
964,2,3938,4650,9759,gggataggtg
965,2,3952,4195,5613,cttgtggaga
966,1,3955,4573,ttcaagtaca
967,1,3956,6889,cctcgcccca
968,1,3957,4054,ttccccgctt
969,1,3958,7657,ctggtcgaaa
970,2,3961,6224,8566,ttcccctata
971,4,3969,8170,9005,9350,9363,gtgccctact
972,3,3977,3979,7179,9974,tgtggagaac
973,1,3984,9653,gctgctgaac
974,1,3990,4829,cttgcagcaa
975,1,3991,6457,ttcgtttgac
976,3,4000,5143,6788,7605,cctggataca
977,2,4005,8719,8891,cgttagtaca
978,2,4008,6360,7441,ctcccctatg
979,1,4009,8596,cggctgctaa
980,1,4010,5369,atttaataca
981,2,4015,5178,7392,tgtgcttaac
982,1,4051,4436,tttaacggtg
983,2,4057,6691,7803,ctcggaccaa
984,3,4060,6938,8592,9412,cgtggagacc
985,4,4061,5193,5671,7306,8830,tagggagacc
986,1,4065,6359,ttggagtatg
987,1,4095,5446,atcgcctatt
988,2,4101,4443,4654,gtgtactatc
989,3,4103,4955,5786,7221,tataaataca
990,1,4115,8659,tttgctgaca
991,1,4144,7630,cgggtatagg
992,1,4151,7718,ctccattaca
993,1,4157,6847,gtgccgtatt
994,1,4158,8536,cccgattaca
995,1,4162,4980,tatgctgaac
996,1,4168,9935,tttatgtacg
997,1,4173,7972,ttttaggagg
998,1,4174,5339,ttgtagtccg
999,2,4193,5698,7128,ttcgtatgcc
1000,1,4199,6132,agtggagggt
1001,1,4200,6678,catgtagatg
1002,2,4202,7012,8122,ctcgattacg
1003,1,4208,4716,cttcaagacg
1004,1,4211,5756,taggtaggtg
1005,1,4218,6759,tgggtataac
1006,1,4229,9697,ccgggagagc
1007,1,4237,9753,ggcaacgacg
1008,2,4244,6848,6882,gtcggtaatt
1009,2,4262,7720,8758,tccggctaac
1010,1,4263,5778,acgcgcgaga
1011,2,4265,5560,9694,tcggtgtaac
1012,1,4266,5692,cggggagaga
1013,1,4277,8865,atcgcctact
1014,1,4282,9054,ttgagtagag
1015,3,4285,7901,9108,9683,ctttagtcta
1016,1,4287,6421,ggcggataag
1017,1,4288,5376,cccccatatt
1018,1,4293,4971,tctgtagaag
1019,2,4299,6306,7357,gtgccctatg
1020,1,4304,5206,tggggtgaac
1021,1,4308,7985,actgtagaga
1022,1,4316,6450,taggtatacc
1023,1,4325,5638,ctgcgcccaa
1024,2,4331,5173,5492,ctccggtacg
1025,4,4332,5689,5990,6627,9713,ctggtcgagc
1026,1,4334,8153,ggaaccgcac
1027,1,4335,7553,ttcgcctgtg
1028,1,4342,5780,atttagtact
1029,2,4346,6577,7220,tttggagaag
1030,3,4370,4857,5299,9330,cttaaataga
1031,2,4373,5661,9056,tctggagaaa
1032,2,4387,5723,6363,tctgtagatg
1033,4,4394,4399,5361,8858,9914,gtcggagatt
1034,5,4395,4881,5860,8379,9096,9628,ttggtagaga
1035,1,4405,8277,attggagacc
1036,2,4418,4569,8731,ctcgtgggcg
1037,2,4421,7174,9663,cgtgtggaaa
1038,1,4422,4929,tgcggagaga
1039,2,4427,4598,7574,cttgtagcaa
1040,1,4451,7401,tcggtgtgcg
1041,1,4454,5830,tcgcgcgaac
1042,3,4464,4830,8287,9134,ctgccctacg
1043,1,4470,8898,tacgggtcca
1044,1,4472,9675,tgtgtataac
1045,2,4478,4807,8239,gtcggcgcat
1046,2,4480,6729,9768,ccttaccaca
1047,1,4486,6199,cgcggagacc
1048,1,4489,4965,cttggagaaa
1049,2,4493,5403,7884,ctaagagatt
1050,1,4495,6884,ttcggcaatt
1051,2,4504,5310,5487,cttgagtaca
1052,1,4506,9797,gtcgtagacc
1053,1,4515,8351,ccctcagagg
1054,1,4522,9984,ggtgcctatt
1055,2,4527,6765,8548,tccgtagaag
1056,1,4542,8610,tcgggagatg
1057,1,4546,6835,ctcgcgtacg
1058,2,4548,6433,6999,cgcggatagc
1059,3,4555,5158,7209,7644,ttcggagatg
1060,1,4558,6116,ttgccctata
1061,1,4559,5451,cttgaataca
1062,1,4560,9076,cttcaataga
1063,1,4568,5963,tgcaactaag
1064,3,4578,6354,6673,6991,ttgagctatt
1065,5,4581,6076,6208,7711,7925,8338,ccggaagagg
1066,1,4582,5921,ttcaagtgca
1067,2,4587,5621,8755,tttaaatatt
1068,2,4594,4753,8971,cctgtagagg
1069,2,4601,4877,5548,tttaaaggct
1070,2,4602,8529,9801,ttcgccaact
1071,5,4603,6723,7437,8945,9015,9382,cgcggagggg
1072,2,4605,5646,8479,agttgctacg
1073,2,4616,4942,9613,ctcgagtaca
1074,1,4618,8001,cctgtatacc
1075,4,4634,5500,5885,6747,9231,ctttgcgatt
1076,3,4635,5448,7287,7800,ccggtataca
1077,1,4640,9523,ttctagtacg
1078,4,4658,7374,7746,8208,9229,tcggaagaac
1079,2,4660,4846,5877,ctttaggcaa
1080,1,4663,9424,cttgcgtacg
1081,1,4669,5556,ggggaagacc
1082,1,4672,5583,ttggtgggga
1083,1,4674,8496,tgcaaataag
1084,1,4677,9824,ggcgtagcag
1085,6,4678,4989,5180,5323,6412,7162,7998,ctggtagagg
1086,2,4680,6937,7678,ggggtaggtg
1087,2,4684,7409,8310,tcgggggatg
1088,1,4694,6981,attgcggaga
1089,1,4695,7296,ttcgcctaca
1090,1,4700,4936,ggaacctatt
1091,2,4722,5502,9336,cctgctgaca
1092,1,4723,8275,ccggtaggta
1093,6,4727,6817,7242,8027,8309,8739,9328,gtcgcctatc
1094,1,4729,7586,ggcggctaac
1095,3,4732,5577,7266,7407,ctctacccca
1096,3,4738,6931,7543,8430,tcgggagaac
1097,1,4740,5810,ttcgaataac
1098,1,4747,5568,cgggtatacc
1099,1,4748,7033,ggcggagacc
1100,1,4760,6955,ccgctactaa
1101,1,4769,8499,cttatgtccc
1102,1,4771,8198,tccggggaag
1103,1,4784,8326,cccgggtaca
1104,1,4787,4854,ctaagtaacc
1105,9,4795,5318,5806,7247,7578,7973,8123,8363,8451,8772,gtggcctatt
1106,1,4797,5919,ccggtatacc
1107,1,4801,5353,gtcccctaac
1108,1,4804,7892,tctggttatt
1109,1,4809,5519,gtcgaatacg
1110,1,4814,8552,ttctattata
1111,2,4826,5250,9347,gtggcctatc
1112,1,4831,7477,ggcatataac
1113,1,4832,7035,cttatataac
1114,1,4837,6078,atctaataca
1115,1,4845,5696,ctttggtcca
1116,1,4853,6502,cttaagtgca
1117,1,4866,7059,cgaagctaca
1118,1,4884,6061,catgtataga
1119,6,4885,5292,5485,5855,6706,8329,8604,tctgctgaac
1120,2,4887,7685,9247,attggcgcat
1121,3,4895,5205,6371,8543,ctcgggaaca
1122,1,4902,7970,tccgtacacc
1123,1,4912,7431,cccggataga
1124,1,4946,9201,gtgggtgctt
1125,1,4951,6489,atgatcgacc
1126,1,4963,9711,tcggacgacc
1127,1,4973,7535,ctccactctt
1128,1,4983,5513,agaagagggt
1129,1,4987,5673,cctggagagc
1130,2,4995,8629,9125,ctttagtatg
1131,3,4997,5982,6309,8976,ttcgtttaca
1132,1,5008,9239,cctatggaca
1133,1,5010,8221,tttgcataca
1134,1,5024,8080,catgctgagg
1135,2,5030,8082,9123,tttaagtacg
1136,1,5040,8952,ttcgcctaag
1137,1,5046,8254,ttctactatt
1138,2,5048,6606,9122,gtcggagatg
1139,1,5050,6935,tttgctgcca
1140,1,5051,6255,ctgaagtgca
1141,1,5063,9242,ccggtaggca
1142,3,5064,7157,7932,8343,ttcggggata
1143,1,5081,5368,ttcgaatacg
1144,1,5084,7165,acggactacc
1145,3,5103,8722,9081,9610,tcggtaacag
1146,1,5105,5995,cgcggaggcg
1147,6,5108,7043,8032,8220,8824,8905,9582,tttggagacc
1148,1,5109,9294,tctgtggacc
1149,1,5110,6349,ttgggcagtc
1150,1,5120,9648,ctttgcgcat
1151,2,5126,5687,6829,ggcggagagg
1152,2,5135,8346,9177,atcgcttacg
1153,1,5136,7334,ggcggagggg
1154,3,5142,6629,7538,9287,ccggaagtga
1155,1,5144,7548,ttcagtactt
1156,2,5145,6157,9649,ttccagtaca
1157,1,5148,9817,gccgcagacc
1158,1,5149,6326,tccaaatacg
1159,3,5154,8644,8817,9890,ccggaacagg
1160,3,5162,5708,6430,9979,cctggagaca
1161,6,5163,6680,6699,6998,7464,9158,9550,cgtgtataga
1162,1,5168,5601,ttttacagag
1163,3,5194,6744,7791,8576,tttgtaggca
1164,2,5208,6610,6631,ctgaaataga
1165,3,5210,7406,8937,9444,atcgcctata
1166,1,5212,7516,ctcgcttaca
1167,1,5220,8303,ccctaggacg
1168,2,5222,7311,7903,ggaaccgcat
1169,1,5224,6042,ctcggatacg
1170,1,5235,6400,actgtaggtg
1171,1,5238,8706,cgcacctata
1172,3,5240,6704,7358,9731,agcctttact
1173,1,5247,5477,tgggtagaag
1174,1,5265,9203,tacgctgagg
1175,1,5275,7276,ttgtagtacc
1176,2,5279,7740,9264,ctggtagaag
1177,2,5295,8070,8626,ctttaggagc
1178,1,5306,8244,ccctacccca
1179,1,5311,6303,agcctgtaca
1180,3,5333,6379,7146,8474,tcgggggata
1181,1,5335,7226,ctccactagg
1182,1,5338,8682,gtcggagaga
1183,1,5348,5981,tttgctgaga
1184,1,5379,7674,ctttctgcca
1185,1,5380,9426,ctggcctaca
1186,1,5392,9839,tgcggagggg
1187,5,5396,5521,7018,7429,7601,9008,cgcgacgaga
1188,2,5410,7142,7841,cctgtagacc
1189,1,5415,7596,gtccaagatt
1190,6,5417,6553,6712,7070,7263,7469,8763,agccattacg
1191,1,5432,5914,ttcgcataga
1192,1,5455,7773,ttcgtagaca
1193,1,5474,8940,cggggagagc
1194,1,5493,8701,ttttgagacg
1195,1,5494,6510,gtggaacatg
1196,1,5497,5681,cttgtttaca
1197,5,5516,6677,6808,6819,8473,9623,tctgctgaca
1198,1,5522,8272,tttgtagagc
1199,1,5542,7298,cttgcagaca
1200,1,5553,6434,tttggagggt
1201,3,5563,6728,9430,9734,gtgcgctatt
1202,1,5573,6254,ttcgtcttgg
1203,1,5588,6462,agcgctggcg
1204,1,5603,9581,gtcgacgatt
1205,2,5608,6279,6669,ttgagtagac
1206,2,5610,7028,7588,ctttagtaga
1207,1,5612,8590,ctcccctata
1208,1,5617,9104,tctatagacc
1209,1,5643,7897,tggggagaaa
1210,1,5645,7787,tcccccacta
1211,2,5652,6977,9631,ccgcaagtga
1212,1,5653,8176,ctctctgagg
1213,1,5654,8672,ccggtctaac
1214,3,5655,6033,7867,8401,ctccactaca
1215,5,5665,7493,7581,7689,8214,8494,agcgtttacg
1216,1,5667,6576,ccggagtaca
1217,3,5677,8104,9500,9636,gtgacctatt
1218,2,5678,5763,8231,ttgggtactt
1219,3,5684,7777,9116,9702,ctttaccagg
1220,2,5693,6166,6739,ggaggcgcac
1221,7,5701,7701,7844,8035,8048,8324,9672,9708,cgggtctaac
1222,1,5706,8929,cgcgtctaga
1223,1,5720,9854,ctctagtaga
1224,2,5722,7277,8409,ttctagtata
1225,5,5734,6682,7006,7723,7810,8188,ctttacgagc
1226,3,5740,6720,9012,9193,ctcgggtact
1227,1,5769,7037,tcttaatacg
1228,1,5779,7991,tcggtggagc
1229,1,5783,6014,catggagaga
1230,1,5785,6339,ctgtaggaag
1231,2,5794,6907,9958,cctgtaggcg
1232,2,5796,7739,7809,cttttgtccg
1233,1,5798,9975,ctcgactatt
1234,1,5819,9343,aggcgctatt
1235,2,5829,6408,6569,acgcaccatt
1236,2,5834,8171,9899,cgttagtact
1237,1,5844,7566,actcaataca
1238,1,5845,7749,cctcaataca
1239,1,5851,5883,ggcggataca
1240,1,5854,7455,ttttggtata
1241,6,5858,5925,7366,7402,7887,8449,8997,ctttaataga
1242,1,5866,6603,gtcgcctacc
1243,1,5882,9038,tcgggataga
1244,2,5888,6993,8845,ctttgctatt
1245,1,5889,7218,atcggtgaca
1246,1,5894,8400,cgttagggca
1247,2,5905,7860,8011,ctgccctatt
1248,1,5926,8159,ccctagtgca
1249,1,5929,9189,ttccactatt
1250,2,5935,8327,9835,catgtatagg
1251,3,5936,6122,7480,7744,ctttactacg
1252,1,5937,9334,ctcacctaca
1253,1,5941,8752,ttcggagata
1254,1,5949,7534,atggtagaca
1255,1,5961,6934,ccggaactaa
1256,1,5962,7016,tccgcttaca
1257,2,5966,7593,8652,ttgtagggtc
1258,1,5971,7708,gtcgctaacc
1259,1,5972,7268,tcgcaacagg
1260,1,5980,9374,ttgtactatc
1261,1,5983,6878,tatgttacca
1262,1,5988,9928,tgaagctaac
1263,2,5994,6103,6519,gtcccctaat
1264,3,5997,6589,9390,9539,ccggtatagg
1265,1,6002,9597,ttgggataca
1266,1,6008,9956,tgcgtagaag
1267,1,6009,7335,tttaagtaaa
1268,1,6020,9388,tgggtagacc
1269,2,6030,8586,9092,tttgtagacc
1270,2,6032,7902,8301,ctaagctaca
1271,1,6038,8218,ttcgtttacg
1272,1,6043,9868,ggcttgtaac
1273,1,6046,9795,tgtgaagaac
1274,1,6057,7224,cccggagagg
1275,1,6059,7849,tgcgtataaa
1276,3,6064,8118,9120,9600,atgccttaca
1277,1,6074,6731,taggtagatg
1278,2,6090,8107,8786,ttggtagagc
1279,1,6107,7290,ctaagtaccc
1280,1,6123,9352,cttatgccca
1281,1,6133,6587,ttgagctaac
1282,1,6143,6922,cggggagacc
1283,1,6146,8735,ctccagtact
1284,2,6162,8769,9902,tgcatagacc
1285,2,6165,7007,7996,ctggtgggcg
1286,1,6170,7438,cccgcagagg
1287,1,6193,9893,ttcgattcta
1288,1,6202,6741,tttgagtagc
1289,1,6227,7104,ttcgggtaca
1290,1,6229,6264,gacgtatacc
1291,1,6240,9841,agcctatact
1292,3,6259,6449,6453,9661,ctggtagaaa
1293,2,6268,8859,8866,gtcgccgact
1294,3,6273,6837,7530,8926,tcggtatatg
1295,1,6277,8041,cgggtagaca
1296,2,6288,6985,7099,ttggccgctt
1297,5,6295,6373,7130,8811,9210,9562,tctgtctaac
1298,2,6299,7598,8867,ttcgtatgtc
1299,2,6312,7049,9129,cgaacagaac
1300,2,6325,7885,8981,cccgcagacc
1301,1,6331,7526,gttggagacc
1302,1,6333,8942,tcggtggatg
1303,3,6353,8459,8733,9470,ctttaggcac
1304,3,6358,8508,9465,9891,atggtatgac
1305,1,6365,9085,tgcgtagggg
1306,1,6368,6777,gtgccgtatg
1307,1,6380,6787,ctccaataag
1308,2,6384,7814,8927,agcgcctcca
1309,1,6388,6572,ggggtataac
1310,1,6389,7390,agttattaca
1311,3,6405,8407,8766,9106,ccggaacaag
1312,2,6409,8497,9720,ccccaagaga
1313,1,6417,7032,gtggccgctt
1314,1,6432,7024,ctaagttatc
1315,1,6445,7653,cttagtaaac
1316,1,6461,8374,agcagctgtg
1317,1,6473,7922,tctgctgagc
1318,1,6482,8468,tgcgaagacc
1319,1,6483,8857,tcgggagaca
1320,2,6484,9325,9863,tgtgcttaca
1321,2,6491,7531,8921,cgtgtataac
1322,3,6508,7874,9657,9831,tgcgtagagg
1323,1,6516,9312,ccgctgctac
1324,1,6524,8258,cttcaatatg
1325,2,6536,7184,9506,atcctttacg
1326,1,6550,9499,ttccaataca
1327,1,6562,8191,cgttagccaa
1328,1,6571,8851,ctcgggtata
1329,1,6578,8848,ggcggaaata
1330,2,6584,8699,9292,agcccctaca
1331,1,6590,6685,ctcaattaca
1332,1,6604,8806,cctcagtaac
1333,1,6616,7208,gttacctata
1334,1,6626,7285,cgaacctggt
1335,2,6628,6950,9752,atggtcttga
1336,1,6634,8657,gtggtgtggc
1337,1,6654,7291,tctgtggaca
1338,1,6666,8262,cttcagtatg
1339,1,6715,8462,cgaagcgcac
1340,1,6717,9082,tgtgtaggaa
1341,1,6735,7769,gtgcgtaccc
1342,2,6738,8977,9441,agccactaca
1343,1,6745,9765,tctgctgacc
1344,3,6749,7859,8870,9879,tattacccca
1345,1,6802,8148,ccccttacca
1346,2,6809,7641,8574,tatggagacc
1347,1,6813,8605,ctcggataca
1348,1,6818,7775,ttcggggagc
1349,1,6820,7481,ttcgtatacc
1350,4,6831,7153,7659,8416,9187,cccgcttaca
1351,1,6841,8314,ccggtataaa
1352,1,6842,9216,ctgccctata
1353,2,6846,7192,9379,aggcgcgaac
1354,3,6863,7063,8061,9576,tggccctatt
1355,1,6865,7907,ctgaaaggtc
1356,1,6886,8883,tgcatcgacc
1357,1,6891,8703,agtgcagacg
1358,1,6898,8853,cttaagtaga
1359,1,6908,8477,ctccactatg
1360,1,6912,7342,attggggaga
1361,1,6914,8524,tccggagagg
1362,1,6916,9418,ccggaacaaa
1363,1,6917,8714,ttcgtataca
1364,2,6929,7069,9568,ggcggaggtt
1365,1,6930,7833,ctctattaca
1366,1,6945,9257,ccggactagg
1367,1,6946,8247,ctccactaga
1368,2,6953,7246,7575,ctcgcctatt
1369,1,6962,9131,ttttattgcg
1370,1,6995,9677,tctgaacagc
1371,1,7015,9191,tcggaggcaa
1372,2,7045,8084,8203,gctgtatacc
1373,2,7055,8399,8911,ttgaactatt
1374,1,7065,7396,cttaggtcca
1375,2,7067,8005,8295,ttcgagttcg
1376,1,7079,7148,tggaaataac
1377,1,7090,9695,ctgggagtgg
1378,1,7093,9466,ccggtctacc
1379,1,7094,9362,tcggtttaca
1380,2,7097,7865,8667,tgcaaagagc
1381,1,7101,9590,cagggagaga
1382,1,7133,8043,ctccataata
1383,1,7139,8248,ctcgggccca
1384,1,7144,9260,ctcaagtaga
1385,1,7156,7743,gtcgcctaac
1386,1,7170,8079,ccggacgaaa
1387,1,7172,9722,cctatagatg
1388,1,7182,9278,agcggctacg
1389,1,7188,9265,tgcgtaggtg
1390,1,7193,8266,ttttgcgatt
1391,1,7194,9155,ttgggtgatc
1392,1,7196,7696,ctcccctatc
1393,2,7199,7328,9690,ccggtagaca
1394,2,7229,9420,9575,cgccgataca
1395,2,7230,7549,7980,ttcgcttatg
1396,1,7244,8455,cggggagaac
1397,1,7245,8180,cccgaagagg
1398,1,7251,8335,ctttggtatt
1399,2,7252,8065,8185,ctcggctaca
1400,1,7278,7518,gcgatagaac
1401,1,7281,9237,ttgggatagc
1402,2,7307,7719,9727,agtaagtacg
1403,1,7313,8319,ctggagtagc
1404,2,7316,9405,9776,tgcgcttagc
1405,1,7318,8809,gttcactcca
1406,1,7322,8173,cttcaatatt
1407,3,7338,9127,9793,9910,ttcgtttaag
1408,2,7347,7771,8627,cctggagagg
1409,1,7364,9630,ctcggagggc
1410,2,7373,9192,9665,cctggaggcg
1411,1,7375,8481,ccggaggacc
1412,1,7426,8443,tcgggtgaca
1413,3,7436,8837,9271,9449,ctttacccct
1414,1,7440,7462,cgtgtagatg
1415,1,7520,8151,ctggtattgg
1416,1,7521,8910,tgttacggtc
1417,1,7525,8331,tctgtggatg
1418,1,7529,8594,cctgtataag
1419,1,7541,9907,atggtagggg
1420,1,7579,8490,ctggtcctaa
1421,1,7602,8115,cccgtcgacc
1422,1,7613,8675,tgcggtgaga
1423,1,7640,8607,gcgcacgacc
1424,1,7663,8261,ggcagattgg
1425,1,7686,8504,cttttgtaca
1426,1,7712,8042,cgggtataac
1427,1,7715,8613,ttcgtctaga
1428,1,7728,7894,tagggagagc
1429,2,7731,8130,8243,tgcgtagatg
1430,1,7734,8339,ctggaagagg
1431,1,7759,9616,cttgggtaga
1432,1,7764,9622,cctgtatacg
1433,1,7765,9262,cttgcctatt
1434,1,7781,9769,agttggtacg
1435,1,7808,9063,ccgcaagacc
1436,1,7817,9821,ttgtactaca
1437,1,7827,9733,tccgcctatc
1438,2,7838,9554,9766,tgcgttgagc
1439,1,7869,8336,gtttcctatg
1440,1,7870,9070,ctttaccccg
1441,1,7873,8939,gccgtacacc
1442,1,7898,8738,attaaataca
1443,1,7910,8267,gccgactacc
1444,1,7914,8175,ccgggaggga
1445,1,7917,8285,ttccgctatt
1446,1,7919,9156,tttgagtaca
1447,1,7927,9144,tctggcgaac
1448,1,7943,8458,gtgcgtaata
1449,2,7945,8255,8520,tctgctacag
1450,1,7967,9964,ggcaaataac
1451,1,7974,8417,ccgcacgaaa
1452,1,8016,8357,agcgcttaca
1453,1,8022,9140,attggctgct
1454,1,8029,9091,tctgaagaca
1455,2,8031,8546,8815,cttgcaggta
1456,1,8066,9940,ccgcgcccaa
1457,1,8075,9894,tgcgcttaac
1458,1,8163,9857,tttgcttaca
1459,1,8224,9913,agcccgtaca
1460,1,8270,9736,tgggtagacg
1461,1,8283,8342,cgtgcggtgc
1462,1,8284,9310,ggggtaggcg
1463,3,8286,8915,9117,9756,tgcgcttacc
1464,1,8300,9244,ctgcaataca
1465,1,8305,8990,gtagatactg
1466,1,8381,9263,tcggttgaga
1467,1,8387,9667,ttcgtatatg
1468,1,8396,9014,ttcggggaaa
1469,1,8413,9222,ttcgtatgga
1470,1,8435,8751,ctctagcaaa
1471,1,8464,9887,gtgcgctatg
1472,1,8478,9832,tcgttagacc
1473,1,8482,9659,ctgggaaacc
1474,1,8486,9822,gtcgtagatg
1475,1,8489,9861,ctggtaggga
1476,1,8527,9516,gccgtctacc
1477,1,8537,9196,tctgcttaca
1478,1,8541,9168,tcggaattag
1479,1,8551,9587,atcgcatacg
1480,2,8554,9138,9925,ctgcgccaca
1481,1,8556,9497,tcggtgtggc
1482,2,8567,8831,9284,ttccctggtt
1483,1,8573,9299,agcgtagaga
1484,1,8578,9547,cccgagtgca
1485,1,8601,9206,gtggtagacc
1486,1,8608,9564,cccgctgaca
1487,1,8646,9468,tgtggaggta
1488,1,8660,9023,ttttgagaga
1489,2,8707,8747,8991,ccggaagaga
1490,2,8756,9276,9830,atcgcctaca
1491,1,8762,9342,ttgccctatg
1492,1,8781,9489,ttcgagtatg
1493,1,8826,9110,ttgggatacc
1494,1,8828,9255,ctcccaaata
1495,1,8836,9040,gtggcatatt
1496,1,8854,9427,gtgagagatg
1497,1,8874,9992,ctggggtacg
1498,1,8931,9288,tgcgacgaga
1499,1,8955,9549,cttttagacg
1500,1,8960,9179,ttgacctatt
1501,1,8972,9253,tcggtggacg
1502,1,8992,9921,tgtgcagatt
1503,1,9013,9788,cgcggtgaga
1504,1,9024,9923,ctggtaggaa
1505,1,9053,9718,atccagtact
1506,1,9062,9977,ctgggagagg
1507,1,9093,9892,ggttgataag
1508,1,9152,9758,tgggtagagg
1509,1,9173,9267,tttgtagacg
1510,1,9290,9686,tctgtgtccc
1511,1,9337,9770,ttgggagggg
1512,1,9391,9669,cctgtataac
1513,1,9408,9615,tccggggata
1514,1,9411,9989,tgtggagagc
1515,1,9443,9906,ctttaagacc
1516,1,9493,9784,ccgggagggg
1517,2,9853,9930,9991,ccggtataag
1518,1,9867,9878,tcggtacaac
Total Match: 4946
