generation_number,offsprings_per_generation,male_offsprings_per_generation,female_offsprings_per_generation,duration
1,46,23,23,97319947674
2,20,8,12,78673950424
3,26,15,11,56717448096
4,27,16,11,29772602463
5,58,23,35,29537028660
6,70,44,26,102250173291
7,112,49,63,48172769754
8,194,79,115,29458578665
9,270,119,151,29482231927
10,329,155,174,29670720655
11,410,203,207,33777071323
12,477,226,251,54873943081
13,581,290,291,40737976985
14,558,263,295,75338119565
15,618,302,316,86014832385
16,659,308,351,111135237799
17,601,302,299,110758347583
18,589,307,282,110091607890
19,576,306,270,106169300377
20,536,259,277,110414552830
21,489,242,247,113579806324
22,463,231,232,113468338631
23,399,194,205,116198077376
24,413,217,196,118503193848
25,293,157,136,113705543108
26,236,128,108,120365651551
27,191,113,78,116895642773
28,182,111,71,122594263706
29,140,80,60,119834872823
30,91,56,35,124907633813
31,84,56,28,127451789518
32,49,36,13,115911066874
33,31,20,11,120690233876
34,40,34,6,120227105035
35,30,22,8,120319874251
36,24,19,5,121216527954
37,11,11,0,106567823968
38,9,6,3,126744541920
39,5,4,1,123434203421
40,5,5,0,132684760006
41,1,1,0,137307451364
42,2,2,0,126852334181
43,0,0,0,0
44,0,0,0,0
45,1,1,0,122743401119
46,0,0,0,0
47,1,1,0,127379171028
48,1,1,0,135225348043
