generation_number,offsprings_per_generation,male_offsprings_per_generation,female_offsprings_per_generation,duration
1,57,34,23,97087613508
2,25,8,17,93810446657
3,25,13,12,101595023187
4,14,6,8,69369464747
5,2,0,2,29440011242
6,6,2,4,101572273091
7,3,2,1,87924867801
8,1,1,0,85550728533
9,2,0,2,101543244248
