generation_number,offsprings_per_generation,male_offsprings_per_generation,female_offsprings_per_generation,duration
1,45,20,25,98014889622
2,35,18,17,94880789071
3,23,10,13,53992611637
4,15,8,7,34771555611
5,29,15,14,29702837160
6,46,23,23,29688695572
7,85,40,45,34279873194
8,151,63,88,30528265019
9,192,84,108,67046686388
10,246,103,143,32485253274
11,334,159,175,55803969750
12,370,159,211,107692502846
13,480,244,236,112692898376
14,428,219,209,89711127901
15,525,251,274,115324378244
16,611,290,321,108758317583
17,605,303,302,111383868839
18,632,323,309,103058308347
19,634,304,330,106780162538
20,642,297,345,116247207604
21,572,278,294,115866277215
22,542,294,248,110782470982
23,535,272,263,111926774794
24,432,232,200,114024497218
25,363,194,169,117354601573
26,307,152,155,116945328796
27,282,152,130,117692708111
28,214,118,96,114016099109
29,161,84,77,120660129760
30,98,60,38,119741722285
31,82,59,23,123551262618
32,56,37,19,131476238578
33,41,33,8,127762846839
34,25,17,8,118966968880
35,33,29,4,124712490151
36,15,13,2,127478917289
37,7,5,2,127823295075
38,12,12,0,125060341656
39,11,11,0,124651561121
40,7,7,0,129355662241
41,2,2,0,127381408419
42,1,1,0,134235129325
