generation_number,offsprings_per_generation,male_offsprings_per_generation,female_offsprings_per_generation,duration
1,39,20,19,96434138683
2,44,18,26,93935787516
3,19,4,15,41756893358
4,28,9,19,46565834475
5,39,19,20,32334415318
6,62,27,35,39885364906
7,99,46,53,30212537914
8,129,59,70,30004847022
9,225,96,129,41792305950
10,266,113,153,58156101429
11,375,171,204,88333769127
12,472,221,251,44140605090
13,574,273,301,81840222744
14,668,306,362,109959898283
15,759,339,420,109760565632
16,703,328,375,100911062531
17,776,368,408,106306246615
18,763,374,389,109583980314
19,697,372,325,105851844703
20,645,328,317,111281605711
21,541,282,259,110469084691
22,414,224,190,119879486821
23,373,206,167,110681536552
24,295,179,116,112865256811
25,231,119,112,120810787318
26,171,99,72,119994428629
27,126,79,47,117705802058
28,104,74,30,126366438664
29,72,50,22,129447477369
30,64,50,14,115489919110
31,48,40,8,121701090826
32,27,22,5,123632181717
33,21,16,5,136249302888
34,14,13,1,124448841988
35,7,7,0,124993342302
36,7,6,1,128577948675
37,6,6,0,119482016399
38,3,3,0,114395900538
39,2,2,0,122814212484
40,4,4,0,130315676972
41,2,2,0,126710926583
42,0,0,0,0
43,0,0,0,0
44,0,0,0,0
45,1,1,0,140613135078
