generation_number,offsprings_per_generation,male_offsprings_per_generation,female_offsprings_per_generation,duration
1,41,21,20,97951978993
2,31,15,16,103340032480
3,27,14,13,29599506258
4,36,15,21,41584819138
5,46,21,25,41760241944
6,57,26,31,29895468692
7,98,40,58,43026174077
8,153,70,83,30394055124
9,202,86,116,30833529915
10,257,117,140,48869263035
11,370,161,209,60649742550
12,406,201,205,55466823615
13,415,192,223,111147394237
14,517,250,267,98013761059
15,533,238,295,115162719653
16,604,290,314,133650475979
17,632,310,322,126415991265
18,627,293,334,130269125586
19,608,284,324,128882239743
20,550,261,289,130571719270
21,482,241,241,135566005002
22,499,253,246,137224933170
23,431,224,207,139683145516
24,392,201,191,141476560292
25,318,159,159,141518182155
26,336,167,169,144086584418
27,257,130,127,136767314121
28,239,143,96,141513643426
29,185,110,75,139659064748
30,144,91,53,147200739902
31,105,60,45,142706978781
32,84,56,28,154481879424
33,53,39,14,152021515347
34,55,42,13,142140159033
35,30,26,4,147049039438
36,22,21,1,147635449381
37,20,16,4,143615368917
38,17,16,1,137255509792
39,9,9,0,150977487932
40,5,5,0,145937110687
41,5,5,0,143747744452
42,2,2,0,149346608860
43,3,3,0,152879246030
44,2,2,0,151849692970
45,0,0,0,0
46,0,0,0,0
47,1,1,0,170969584827
